%!PS-Adobe-3.0 EPSF-3.0
%%Creator: (MATLAB, The Mathworks, Inc. Version 8.6.0.267246 \(R2015b\). Operating System: Mac OS X)
%%Title: (/Users/elvinisufi/Dropbox/Mario Coutigno/graphSubSampling/figures/errorComparisonNV1.eps)
%%CreationDate: 2017-06-12T17:47:00
%%Pages: (atend)
%%BoundingBox: 0 0 560 420
%%LanguageLevel: 2
%%EndComments
%%BeginProlog
%%BeginResource: procset (Apache XML Graphics Std ProcSet) 1.2 0
%%Version: 1.2 0
%%Copyright: (Copyright 2001-2003,2010 The Apache Software Foundation. License terms: http://www.apache.org/licenses/LICENSE-2.0)
/bd{bind def}bind def
/ld{load def}bd
/GR/grestore ld
/M/moveto ld
/LJ/setlinejoin ld
/C/curveto ld
/f/fill ld
/LW/setlinewidth ld
/GC/setgray ld
/t/show ld
/N/newpath ld
/CT/concat ld
/cp/closepath ld
/S/stroke ld
/L/lineto ld
/CC/setcmykcolor ld
/A/ashow ld
/GS/gsave ld
/RC/setrgbcolor ld
/RM/rmoveto ld
/ML/setmiterlimit ld
/re {4 2 roll M
1 index 0 rlineto
0 exch rlineto
neg 0 rlineto
cp } bd
/_ctm matrix def
/_tm matrix def
/BT { _ctm currentmatrix pop matrix _tm copy pop 0 0 moveto } bd
/ET { _ctm setmatrix } bd
/iTm { _ctm setmatrix _tm concat } bd
/Tm { _tm astore pop iTm 0 0 moveto } bd
/ux 0.0 def
/uy 0.0 def
/F {
  /Tp exch def
  /Tf exch def
  Tf findfont Tp scalefont setfont
  /cf Tf def  /cs Tp def
} bd
/ULS {currentpoint /uy exch def /ux exch def} bd
/ULE {
  /Tcx currentpoint pop def
  gsave
  newpath
  cf findfont cs scalefont dup
  /FontMatrix get 0 get /Ts exch def /FontInfo get dup
  /UnderlinePosition get Ts mul /To exch def
  /UnderlineThickness get Ts mul /Tt exch def
  ux uy To add moveto  Tcx uy To add lineto
  Tt setlinewidth stroke
  grestore
} bd
/OLE {
  /Tcx currentpoint pop def
  gsave
  newpath
  cf findfont cs scalefont dup
  /FontMatrix get 0 get /Ts exch def /FontInfo get dup
  /UnderlinePosition get Ts mul /To exch def
  /UnderlineThickness get Ts mul /Tt exch def
  ux uy To add cs add moveto Tcx uy To add cs add lineto
  Tt setlinewidth stroke
  grestore
} bd
/SOE {
  /Tcx currentpoint pop def
  gsave
  newpath
  cf findfont cs scalefont dup
  /FontMatrix get 0 get /Ts exch def /FontInfo get dup
  /UnderlinePosition get Ts mul /To exch def
  /UnderlineThickness get Ts mul /Tt exch def
  ux uy To add cs 10 mul 26 idiv add moveto Tcx uy To add cs 10 mul 26 idiv add lineto
  Tt setlinewidth stroke
  grestore
} bd
/QT {
/Y22 exch store
/X22 exch store
/Y21 exch store
/X21 exch store
currentpoint
/Y21 load 2 mul add 3 div exch
/X21 load 2 mul add 3 div exch
/X21 load 2 mul /X22 load add 3 div
/Y21 load 2 mul /Y22 load add 3 div
/X22 load /Y22 load curveto
} bd
/SSPD {
dup length /d exch dict def
{
/v exch def
/k exch def
currentpagedevice k known {
/cpdv currentpagedevice k get def
v cpdv ne {
/upd false def
/nullv v type /nulltype eq def
/nullcpdv cpdv type /nulltype eq def
nullv nullcpdv or
{
/upd true def
} {
/sametype v type cpdv type eq def
sametype {
v type /arraytype eq {
/vlen v length def
/cpdvlen cpdv length def
vlen cpdvlen eq {
0 1 vlen 1 sub {
/i exch def
/obj v i get def
/cpdobj cpdv i get def
obj cpdobj ne {
/upd true def
exit
} if
} for
} {
/upd true def
} ifelse
} {
v type /dicttype eq {
v {
/dv exch def
/dk exch def
/cpddv cpdv dk get def
dv cpddv ne {
/upd true def
exit
} if
} forall
} {
/upd true def
} ifelse
} ifelse
} if
} ifelse
upd true eq {
d k v put
} if
} if
} if
} forall
d length 0 gt {
d setpagedevice
} if
} bd
%%EndResource
%%BeginResource: procset (Apache XML Graphics EPS ProcSet) 1.0 0
%%Version: 1.0 0
%%Copyright: (Copyright 2002-2003 The Apache Software Foundation. License terms: http://www.apache.org/licenses/LICENSE-2.0)
/BeginEPSF { %def
/b4_Inc_state save def         % Save state for cleanup
/dict_count countdictstack def % Count objects on dict stack
/op_count count 1 sub def      % Count objects on operand stack
userdict begin                 % Push userdict on dict stack
/showpage { } def              % Redefine showpage, { } = null proc
0 setgray 0 setlinecap         % Prepare graphics state
1 setlinewidth 0 setlinejoin
10 setmiterlimit [ ] 0 setdash newpath
/languagelevel where           % If level not equal to 1 then
{pop languagelevel             % set strokeadjust and
1 ne                           % overprint to their defaults.
{false setstrokeadjust false setoverprint
} if
} if
} bd
/EndEPSF { %def
count op_count sub {pop} repeat            % Clean up stacks
countdictstack dict_count sub {end} repeat
b4_Inc_state restore
} bd
%%EndResource
%FOPBeginFontDict
%%IncludeResource: font Courier-Bold
%%IncludeResource: font Helvetica
%%IncludeResource: font Courier-BoldOblique
%%IncludeResource: font Courier-Oblique
%%IncludeResource: font Times-Roman
%%IncludeResource: font Helvetica-BoldOblique
%%IncludeResource: font Helvetica-Bold
%%IncludeResource: font Helvetica-Oblique
%%IncludeResource: font Times-BoldItalic
%%IncludeResource: font Courier
%%IncludeResource: font Times-Italic
%%IncludeResource: font Times-Bold
%%IncludeResource: font Symbol
%%IncludeResource: font ZapfDingbats
%FOPEndFontDict
%%BeginResource: encoding WinAnsiEncoding
/WinAnsiEncoding [
/.notdef /.notdef /.notdef /.notdef /.notdef
/.notdef /.notdef /.notdef /.notdef /.notdef
/.notdef /.notdef /.notdef /.notdef /.notdef
/.notdef /.notdef /.notdef /.notdef /.notdef
/.notdef /.notdef /.notdef /.notdef /.notdef
/.notdef /.notdef /.notdef /.notdef /.notdef
/.notdef /.notdef /space /exclam /quotedbl
/numbersign /dollar /percent /ampersand /quotesingle
/parenleft /parenright /asterisk /plus /comma
/hyphen /period /slash /zero /one
/two /three /four /five /six
/seven /eight /nine /colon /semicolon
/less /equal /greater /question /at
/A /B /C /D /E
/F /G /H /I /J
/K /L /M /N /O
/P /Q /R /S /T
/U /V /W /X /Y
/Z /bracketleft /backslash /bracketright /asciicircum
/underscore /quoteleft /a /b /c
/d /e /f /g /h
/i /j /k /l /m
/n /o /p /q /r
/s /t /u /v /w
/x /y /z /braceleft /bar
/braceright /asciitilde /bullet /Euro /bullet
/quotesinglbase /florin /quotedblbase /ellipsis /dagger
/daggerdbl /circumflex /perthousand /Scaron /guilsinglleft
/OE /bullet /Zcaron /bullet /bullet
/quoteleft /quoteright /quotedblleft /quotedblright /bullet
/endash /emdash /asciitilde /trademark /scaron
/guilsinglright /oe /bullet /zcaron /Ydieresis
/space /exclamdown /cent /sterling /currency
/yen /brokenbar /section /dieresis /copyright
/ordfeminine /guillemotleft /logicalnot /sfthyphen /registered
/macron /degree /plusminus /twosuperior /threesuperior
/acute /mu /paragraph /middot /cedilla
/onesuperior /ordmasculine /guillemotright /onequarter /onehalf
/threequarters /questiondown /Agrave /Aacute /Acircumflex
/Atilde /Adieresis /Aring /AE /Ccedilla
/Egrave /Eacute /Ecircumflex /Edieresis /Igrave
/Iacute /Icircumflex /Idieresis /Eth /Ntilde
/Ograve /Oacute /Ocircumflex /Otilde /Odieresis
/multiply /Oslash /Ugrave /Uacute /Ucircumflex
/Udieresis /Yacute /Thorn /germandbls /agrave
/aacute /acircumflex /atilde /adieresis /aring
/ae /ccedilla /egrave /eacute /ecircumflex
/edieresis /igrave /iacute /icircumflex /idieresis
/eth /ntilde /ograve /oacute /ocircumflex
/otilde /odieresis /divide /oslash /ugrave
/uacute /ucircumflex /udieresis /yacute /thorn
/ydieresis
] def
%%EndResource
%FOPBeginFontReencode
/Courier-Bold findfont
dup length dict begin
  {1 index /FID ne {def} {pop pop} ifelse} forall
  /Encoding WinAnsiEncoding def
  currentdict
end
/Courier-Bold exch definefont pop
/Helvetica findfont
dup length dict begin
  {1 index /FID ne {def} {pop pop} ifelse} forall
  /Encoding WinAnsiEncoding def
  currentdict
end
/Helvetica exch definefont pop
/Courier-BoldOblique findfont
dup length dict begin
  {1 index /FID ne {def} {pop pop} ifelse} forall
  /Encoding WinAnsiEncoding def
  currentdict
end
/Courier-BoldOblique exch definefont pop
/Courier-Oblique findfont
dup length dict begin
  {1 index /FID ne {def} {pop pop} ifelse} forall
  /Encoding WinAnsiEncoding def
  currentdict
end
/Courier-Oblique exch definefont pop
/Times-Roman findfont
dup length dict begin
  {1 index /FID ne {def} {pop pop} ifelse} forall
  /Encoding WinAnsiEncoding def
  currentdict
end
/Times-Roman exch definefont pop
/Helvetica-BoldOblique findfont
dup length dict begin
  {1 index /FID ne {def} {pop pop} ifelse} forall
  /Encoding WinAnsiEncoding def
  currentdict
end
/Helvetica-BoldOblique exch definefont pop
/Helvetica-Bold findfont
dup length dict begin
  {1 index /FID ne {def} {pop pop} ifelse} forall
  /Encoding WinAnsiEncoding def
  currentdict
end
/Helvetica-Bold exch definefont pop
/Helvetica-Oblique findfont
dup length dict begin
  {1 index /FID ne {def} {pop pop} ifelse} forall
  /Encoding WinAnsiEncoding def
  currentdict
end
/Helvetica-Oblique exch definefont pop
/Times-BoldItalic findfont
dup length dict begin
  {1 index /FID ne {def} {pop pop} ifelse} forall
  /Encoding WinAnsiEncoding def
  currentdict
end
/Times-BoldItalic exch definefont pop
/Courier findfont
dup length dict begin
  {1 index /FID ne {def} {pop pop} ifelse} forall
  /Encoding WinAnsiEncoding def
  currentdict
end
/Courier exch definefont pop
/Times-Italic findfont
dup length dict begin
  {1 index /FID ne {def} {pop pop} ifelse} forall
  /Encoding WinAnsiEncoding def
  currentdict
end
/Times-Italic exch definefont pop
/Times-Bold findfont
dup length dict begin
  {1 index /FID ne {def} {pop pop} ifelse} forall
  /Encoding WinAnsiEncoding def
  currentdict
end
/Times-Bold exch definefont pop
%FOPEndFontReencode
%%EndProlog
%%Page: 1 1
%%PageBoundingBox: 0 0 560 420
%%BeginPageSetup
[1 0 0 -1 0 420] CT
%%EndPageSetup
GS
1 GC
N
0 0 560 420 re
f
GR
GS
1 GC
N
0 0 560 420 re
f
GR
GS
1 GC
N
73 166.5 M
507 166.5 L
507 31.5 L
73 31.5 L
cp
f
GR
GS
0.873 GC
1 LJ
0.5 LW
N
73 166.5 M
73 31.5 L
S
GR
GS
0.873 GC
1 LJ
0.5 LW
N
181.5 166.5 M
181.5 31.5 L
S
GR
GS
0.873 GC
1 LJ
0.5 LW
N
290 166.5 M
290 31.5 L
S
GR
GS
0.873 GC
1 LJ
0.5 LW
N
398.5 166.5 M
398.5 31.5 L
S
GR
GS
0.873 GC
1 LJ
0.5 LW
N
507 166.5 M
507 31.5 L
S
GR
GS
0.873 GC
1 LJ
0.5 LW
N
507 160.878 M
73 160.878 L
S
GR
GS
0.873 GC
1 LJ
0.5 LW
N
507 109.269 M
73 109.269 L
S
GR
GS
0.873 GC
1 LJ
0.5 LW
N
507 66.262 M
73 66.262 L
S
GR
GS
0.873 GC
1 LJ
0.5 LW
N
507 31.856 M
73 31.856 L
S
GR
GS
0.149 GC
2 setlinecap
1 LJ
0.5 LW
N
73 166.5 M
507 166.5 L
S
GR
GS
0.149 GC
2 setlinecap
1 LJ
0.5 LW
N
73 31.5 M
507 31.5 L
S
GR
GS
0.149 GC
2 setlinecap
1 LJ
0.5 LW
N
73 166.5 M
73 162.16 L
S
GR
GS
0.149 GC
2 setlinecap
1 LJ
0.5 LW
N
181.5 166.5 M
181.5 162.16 L
S
GR
GS
0.149 GC
2 setlinecap
1 LJ
0.5 LW
N
290 166.5 M
290 162.16 L
S
GR
GS
0.149 GC
2 setlinecap
1 LJ
0.5 LW
N
398.5 166.5 M
398.5 162.16 L
S
GR
GS
0.149 GC
2 setlinecap
1 LJ
0.5 LW
N
507 166.5 M
507 162.16 L
S
GR
GS
0.149 GC
2 setlinecap
1 LJ
0.5 LW
N
73 31.5 M
73 35.84 L
S
GR
GS
0.149 GC
2 setlinecap
1 LJ
0.5 LW
N
181.5 31.5 M
181.5 35.84 L
S
GR
GS
0.149 GC
2 setlinecap
1 LJ
0.5 LW
N
290 31.5 M
290 35.84 L
S
GR
GS
0.149 GC
2 setlinecap
1 LJ
0.5 LW
N
398.5 31.5 M
398.5 35.84 L
S
GR
GS
0.149 GC
2 setlinecap
1 LJ
0.5 LW
N
507 31.5 M
507 35.84 L
S
GR
GS
[1 0 0 1 73 171.5] CT
0.149 GC
/Helvetica 15 F
GS
[1 0 0 1 0 0] CT
-4.5 12 moveto 
1 -1 scale
(0) t 
GR
GR
GS
[1 0 0 1 181.5 171.5] CT
0.149 GC
/Helvetica 15 F
GS
[1 0 0 1 0 0] CT
-4.5 12 moveto 
1 -1 scale
(5) t 
GR
GR
GS
[1 0 0 1 290 171.5] CT
0.149 GC
/Helvetica 15 F
GS
[1 0 0 1 0 0] CT
-8.5 12 moveto 
1 -1 scale
(10) t 
GR
GR
GS
[1 0 0 1 398.5 171.5] CT
0.149 GC
/Helvetica 15 F
GS
[1 0 0 1 0 0] CT
-8.5 12 moveto 
1 -1 scale
(15) t 
GR
GR
GS
[1 0 0 1 507 171.5] CT
0.149 GC
/Helvetica 15 F
GS
[1 0 0 1 0 0] CT
-8.5 12 moveto 
1 -1 scale
(20) t 
GR
GR
GS
[1 0 0 1 290.00021 188] CT
0.149 GC
/Helvetica 17 F
GS
[1 0 0 1 0 0] CT
-4.5 14 moveto 
1 -1 scale
(x) t 
GR
GR
GS
0.149 GC
2 setlinecap
1 LJ
0.5 LW
N
73 166.5 M
73 31.5 L
S
GR
GS
0.149 GC
2 setlinecap
1 LJ
0.5 LW
N
507 166.5 M
507 31.5 L
S
GR
GS
0.149 GC
2 setlinecap
1 LJ
0.5 LW
N
73 160.878 M
77.34 160.878 L
S
GR
GS
0.149 GC
2 setlinecap
1 LJ
0.5 LW
N
73 109.269 M
77.34 109.269 L
S
GR
GS
0.149 GC
2 setlinecap
1 LJ
0.5 LW
N
73 66.262 M
77.34 66.262 L
S
GR
GS
0.149 GC
2 setlinecap
1 LJ
0.5 LW
N
73 31.856 M
77.34 31.856 L
S
GR
GS
0.149 GC
2 setlinecap
1 LJ
0.5 LW
N
507 160.878 M
502.66 160.878 L
S
GR
GS
0.149 GC
2 setlinecap
1 LJ
0.5 LW
N
507 109.269 M
502.66 109.269 L
S
GR
GS
0.149 GC
2 setlinecap
1 LJ
0.5 LW
N
507 66.262 M
502.66 66.262 L
S
GR
GS
0.149 GC
2 setlinecap
1 LJ
0.5 LW
N
507 31.856 M
502.66 31.856 L
S
GR
GS
[1 0 0 1 33 168] CT
0.149 GC
/Helvetica 15 F
GS
[1 0 0 1 0 0] CT
0 0 moveto 
1 -1 scale
(10) t 
GR
GR
GS
[1 0 0 1 50 161] CT
0.149 GC
/Helvetica 12 F
GS
[1 0 0 1 0 0] CT
0 0 moveto 
1 -1 scale
(-15) t 
GR
GR
GS
[1 0 0 1 40 116] CT
0.149 GC
/Helvetica 15 F
GS
[1 0 0 1 0 0] CT
0 0 moveto 
1 -1 scale
(10) t 
GR
GR
GS
[1 0 0 1 57 109] CT
0.149 GC
/Helvetica 12 F
GS
[1 0 0 1 0 0] CT
0 0 moveto 
1 -1 scale
(-9) t 
GR
GR
GS
[1 0 0 1 40 73] CT
0.149 GC
/Helvetica 15 F
GS
[1 0 0 1 0 0] CT
0 0 moveto 
1 -1 scale
(10) t 
GR
GR
GS
[1 0 0 1 57 66] CT
0.149 GC
/Helvetica 12 F
GS
[1 0 0 1 0 0] CT
0 0 moveto 
1 -1 scale
(-4) t 
GR
GR
GS
[1 0 0 1 44 39] CT
0.149 GC
/Helvetica 15 F
GS
[1 0 0 1 0 0] CT
0 0 moveto 
1 -1 scale
(10) t 
GR
GR
GS
[1 0 0 1 61 32] CT
0.149 GC
/Helvetica 12 F
GS
[1 0 0 1 0 0] CT
0 0 moveto 
1 -1 scale
(0) t 
GR
GR
GS
[0 -1 1 0 30.5 98.99994] CT
0.149 GC
/Helvetica 17 F
GS
[1 0 0 1 0 0] CT
-25 -4 moveto 
1 -1 scale
(NMSE) t 
GR
GR
GS
0 0 1 RC
1 LJ
1.1 LW
N
94.7 44.686 M
116.4 61.08 L
138.1 67.752 L
159.8 83.458 L
181.5 88.865 L
203.2 109.195 L
224.9 114.399 L
246.6 139.361 L
268.3 144.213 L
287.659 166.514 L
S
GR
GS
0 0 1 RC
1 LJ
1.1 LW
N
91 44.5 M
98 44.5 L
S
GR
GS
0 0 1 RC
1 LJ
1.1 LW
N
94.5 48 M
94.5 41 L
S
GR
GS
0 0 1 RC
1 LJ
1.1 LW
N
92 47 M
97 42 L
S
GR
GS
0 0 1 RC
1 LJ
1.1 LW
N
92 42 M
97 47 L
S
GR
GS
0 0 1 RC
1 LJ
1.1 LW
N
113 61.5 M
120 61.5 L
S
GR
GS
0 0 1 RC
1 LJ
1.1 LW
N
116.5 65 M
116.5 58 L
S
GR
GS
0 0 1 RC
1 LJ
1.1 LW
N
114 64 M
119 59 L
S
GR
GS
0 0 1 RC
1 LJ
1.1 LW
N
114 59 M
119 64 L
S
GR
GS
0 0 1 RC
1 LJ
1.1 LW
N
135 67.5 M
142 67.5 L
S
GR
GS
0 0 1 RC
1 LJ
1.1 LW
N
138.5 71 M
138.5 64 L
S
GR
GS
0 0 1 RC
1 LJ
1.1 LW
N
136 70 M
141 65 L
S
GR
GS
0 0 1 RC
1 LJ
1.1 LW
N
136 65 M
141 70 L
S
GR
GS
0 0 1 RC
1 LJ
1.1 LW
N
156 83.5 M
163 83.5 L
S
GR
GS
0 0 1 RC
1 LJ
1.1 LW
N
159.5 87 M
159.5 80 L
S
GR
GS
0 0 1 RC
1 LJ
1.1 LW
N
157 86 M
162 81 L
S
GR
GS
0 0 1 RC
1 LJ
1.1 LW
N
157 81 M
162 86 L
S
GR
GS
0 0 1 RC
1 LJ
1.1 LW
N
178 88.5 M
185 88.5 L
S
GR
GS
0 0 1 RC
1 LJ
1.1 LW
N
181.5 92 M
181.5 85 L
S
GR
GS
0 0 1 RC
1 LJ
1.1 LW
N
179 91 M
184 86 L
S
GR
GS
0 0 1 RC
1 LJ
1.1 LW
N
179 86 M
184 91 L
S
GR
GS
0 0 1 RC
1 LJ
1.1 LW
N
200 109.5 M
207 109.5 L
S
GR
GS
0 0 1 RC
1 LJ
1.1 LW
N
203.5 113 M
203.5 106 L
S
GR
GS
0 0 1 RC
1 LJ
1.1 LW
N
201 112 M
206 107 L
S
GR
GS
0 0 1 RC
1 LJ
1.1 LW
N
201 107 M
206 112 L
S
GR
GS
0 0 1 RC
1 LJ
1.1 LW
N
221 114.5 M
228 114.5 L
S
GR
GS
0 0 1 RC
1 LJ
1.1 LW
N
224.5 118 M
224.5 111 L
S
GR
GS
0 0 1 RC
1 LJ
1.1 LW
N
222 117 M
227 112 L
S
GR
GS
0 0 1 RC
1 LJ
1.1 LW
N
222 112 M
227 117 L
S
GR
GS
0 0 1 RC
1 LJ
1.1 LW
N
243 139.5 M
250 139.5 L
S
GR
GS
0 0 1 RC
1 LJ
1.1 LW
N
246.5 143 M
246.5 136 L
S
GR
GS
0 0 1 RC
1 LJ
1.1 LW
N
244 142 M
249 137 L
S
GR
GS
0 0 1 RC
1 LJ
1.1 LW
N
244 137 M
249 142 L
S
GR
GS
0 0 1 RC
1 LJ
1.1 LW
N
265 144.5 M
272 144.5 L
S
GR
GS
0 0 1 RC
1 LJ
1.1 LW
N
268.5 148 M
268.5 141 L
S
GR
GS
0 0 1 RC
1 LJ
1.1 LW
N
266 147 M
271 142 L
S
GR
GS
0 0 1 RC
1 LJ
1.1 LW
N
266 142 M
271 147 L
S
GR
GS
1 0 0 RC
[10 6] 0 setdash
2 LJ
1.1 LW
N
94.7 38.763 M
116.4 47.129 L
138.1 50.448 L
159.8 54.113 L
181.5 64.207 L
203.2 64.698 L
224.9 77.978 L
246.6 77.889 L
268.3 92.039 L
290 93.015 L
311.7 106.32 L
333.4 109.946 L
355.1 121.684 L
376.8 127.894 L
398.5 138.425 L
420.2 147.162 L
441.9 156.418 L
461.764 166.514 L
S
GR
GS
1 0 0 RC
1 LJ
1.1 LW
N
97.5 38.5 M
96.621 36.379 L
94.5 35.5 L
92.379 36.379 L
91.5 38.5 L
92.379 40.621 L
94.5 41.5 L
96.621 40.621 L
cp
S
GR
GS
1 0 0 RC
1 LJ
1.1 LW
N
119.5 47.5 M
118.621 45.379 L
116.5 44.5 L
114.379 45.379 L
113.5 47.5 L
114.379 49.621 L
116.5 50.5 L
118.621 49.621 L
cp
S
GR
GS
1 0 0 RC
1 LJ
1.1 LW
N
141.5 50.5 M
140.621 48.379 L
138.5 47.5 L
136.379 48.379 L
135.5 50.5 L
136.379 52.621 L
138.5 53.5 L
140.621 52.621 L
cp
S
GR
GS
1 0 0 RC
1 LJ
1.1 LW
N
162.5 54.5 M
161.621 52.379 L
159.5 51.5 L
157.379 52.379 L
156.5 54.5 L
157.379 56.621 L
159.5 57.5 L
161.621 56.621 L
cp
S
GR
GS
1 0 0 RC
1 LJ
1.1 LW
N
184.5 64.5 M
183.621 62.379 L
181.5 61.5 L
179.379 62.379 L
178.5 64.5 L
179.379 66.621 L
181.5 67.5 L
183.621 66.621 L
cp
S
GR
GS
1 0 0 RC
1 LJ
1.1 LW
N
206.5 64.5 M
205.621 62.379 L
203.5 61.5 L
201.379 62.379 L
200.5 64.5 L
201.379 66.621 L
203.5 67.5 L
205.621 66.621 L
cp
S
GR
GS
1 0 0 RC
1 LJ
1.1 LW
N
227.5 77.5 M
226.621 75.379 L
224.5 74.5 L
222.379 75.379 L
221.5 77.5 L
222.379 79.621 L
224.5 80.5 L
226.621 79.621 L
cp
S
GR
GS
1 0 0 RC
1 LJ
1.1 LW
N
249.5 77.5 M
248.621 75.379 L
246.5 74.5 L
244.379 75.379 L
243.5 77.5 L
244.379 79.621 L
246.5 80.5 L
248.621 79.621 L
cp
S
GR
GS
1 0 0 RC
1 LJ
1.1 LW
N
271.5 92.5 M
270.621 90.379 L
268.5 89.5 L
266.379 90.379 L
265.5 92.5 L
266.379 94.621 L
268.5 95.5 L
270.621 94.621 L
cp
S
GR
GS
1 0 0 RC
1 LJ
1.1 LW
N
293.5 93.5 M
292.621 91.379 L
290.5 90.5 L
288.379 91.379 L
287.5 93.5 L
288.379 95.621 L
290.5 96.5 L
292.621 95.621 L
cp
S
GR
GS
1 0 0 RC
1 LJ
1.1 LW
N
314.5 106.5 M
313.621 104.379 L
311.5 103.5 L
309.379 104.379 L
308.5 106.5 L
309.379 108.621 L
311.5 109.5 L
313.621 108.621 L
cp
S
GR
GS
1 0 0 RC
1 LJ
1.1 LW
N
336.5 109.5 M
335.621 107.379 L
333.5 106.5 L
331.379 107.379 L
330.5 109.5 L
331.379 111.621 L
333.5 112.5 L
335.621 111.621 L
cp
S
GR
GS
1 0 0 RC
1 LJ
1.1 LW
N
358.5 121.5 M
357.621 119.379 L
355.5 118.5 L
353.379 119.379 L
352.5 121.5 L
353.379 123.621 L
355.5 124.5 L
357.621 123.621 L
cp
S
GR
GS
1 0 0 RC
1 LJ
1.1 LW
N
379.5 127.5 M
378.621 125.379 L
376.5 124.5 L
374.379 125.379 L
373.5 127.5 L
374.379 129.621 L
376.5 130.5 L
378.621 129.621 L
cp
S
GR
GS
1 0 0 RC
1 LJ
1.1 LW
N
401.5 138.5 M
400.621 136.379 L
398.5 135.5 L
396.379 136.379 L
395.5 138.5 L
396.379 140.621 L
398.5 141.5 L
400.621 140.621 L
cp
S
GR
GS
1 0 0 RC
1 LJ
1.1 LW
N
423.5 147.5 M
422.621 145.379 L
420.5 144.5 L
418.379 145.379 L
417.5 147.5 L
418.379 149.621 L
420.5 150.5 L
422.621 149.621 L
cp
S
GR
GS
1 0 0 RC
1 LJ
1.1 LW
N
444.5 156.5 M
443.621 154.379 L
441.5 153.5 L
439.379 154.379 L
438.5 156.5 L
439.379 158.621 L
441.5 159.5 L
443.621 158.621 L
cp
S
GR
GS
0 1 0 RC
[8 3 2 3] 0 setdash
2 LJ
1.1 LW
N
94.7 43.486 M
116.4 57.41 L
138.1 58.912 L
159.8 74.938 L
181.5 76.717 L
203.2 92.395 L
224.9 96.911 L
246.6 111.808 L
268.3 117.302 L
290 134.516 L
311.7 140.706 L
333.4 155.882 L
355.1 165.155 L
356.815 166.514 L
S
GR
GS
0 1 0 RC
1 LJ
1.1 LW
N
91 43.5 M
98 43.5 L
S
GR
GS
0 1 0 RC
1 LJ
1.1 LW
N
94.5 47 M
94.5 40 L
S
GR
GS
0 1 0 RC
1 LJ
1.1 LW
N
113 57.5 M
120 57.5 L
S
GR
GS
0 1 0 RC
1 LJ
1.1 LW
N
116.5 61 M
116.5 54 L
S
GR
GS
0 1 0 RC
1 LJ
1.1 LW
N
135 58.5 M
142 58.5 L
S
GR
GS
0 1 0 RC
1 LJ
1.1 LW
N
138.5 62 M
138.5 55 L
S
GR
GS
0 1 0 RC
1 LJ
1.1 LW
N
156 74.5 M
163 74.5 L
S
GR
GS
0 1 0 RC
1 LJ
1.1 LW
N
159.5 78 M
159.5 71 L
S
GR
GS
0 1 0 RC
1 LJ
1.1 LW
N
178 76.5 M
185 76.5 L
S
GR
GS
0 1 0 RC
1 LJ
1.1 LW
N
181.5 80 M
181.5 73 L
S
GR
GS
0 1 0 RC
1 LJ
1.1 LW
N
200 92.5 M
207 92.5 L
S
GR
GS
0 1 0 RC
1 LJ
1.1 LW
N
203.5 96 M
203.5 89 L
S
GR
GS
0 1 0 RC
1 LJ
1.1 LW
N
221 96.5 M
228 96.5 L
S
GR
GS
0 1 0 RC
1 LJ
1.1 LW
N
224.5 100 M
224.5 93 L
S
GR
GS
0 1 0 RC
1 LJ
1.1 LW
N
243 111.5 M
250 111.5 L
S
GR
GS
0 1 0 RC
1 LJ
1.1 LW
N
246.5 115 M
246.5 108 L
S
GR
GS
0 1 0 RC
1 LJ
1.1 LW
N
265 117.5 M
272 117.5 L
S
GR
GS
0 1 0 RC
1 LJ
1.1 LW
N
268.5 121 M
268.5 114 L
S
GR
GS
0 1 0 RC
1 LJ
1.1 LW
N
287 134.5 M
294 134.5 L
S
GR
GS
0 1 0 RC
1 LJ
1.1 LW
N
290.5 138 M
290.5 131 L
S
GR
GS
0 1 0 RC
1 LJ
1.1 LW
N
308 140.5 M
315 140.5 L
S
GR
GS
0 1 0 RC
1 LJ
1.1 LW
N
311.5 144 M
311.5 137 L
S
GR
GS
0 1 0 RC
1 LJ
1.1 LW
N
330 155.5 M
337 155.5 L
S
GR
GS
0 1 0 RC
1 LJ
1.1 LW
N
333.5 159 M
333.5 152 L
S
GR
GS
0 1 0 RC
1 LJ
1.1 LW
N
352 165.5 M
359 165.5 L
S
GR
GS
0 1 0 RC
1 LJ
1.1 LW
N
355.5 169 M
355.5 162 L
S
GR
GS
1 GC
N
384.5 87.5 M
384.5 40.5 L
496 40.5 L
496 87.5 L
cp
f
GR
GS
[1 0 0 1 423.5 49.5] CT
/Helvetica 14 F
GS
[1 0 0 1 0 0] CT
0 3.5 moveto 
1 -1 scale
(EV-Filter) t 
GR
GR
GS
0 0 1 RC
1 LJ
1.1 LW
N
390.5 49.5 M
420.5 49.5 L
S
GR
GS
0 0 1 RC
1 LJ
1.1 LW
N
402 49.5 M
409 49.5 L
S
GR
GS
0 0 1 RC
1 LJ
1.1 LW
N
405.5 53 M
405.5 46 L
S
GR
GS
0 0 1 RC
1 LJ
1.1 LW
N
403 52 M
408 47 L
S
GR
GS
0 0 1 RC
1 LJ
1.1 LW
N
403 47 M
408 52 L
S
GR
GS
[1 0 0 1 423.5 64] CT
/Helvetica 14 F
GS
[1 0 0 1 0 0] CT
0 3.5 moveto 
1 -1 scale
(Classic FIR) t 
GR
GR
GS
1 0 0 RC
[10 6] 0 setdash
2 LJ
1.1 LW
N
390.5 64 M
420.5 64 L
S
GR
GS
1 0 0 RC
1 LJ
1.1 LW
N
408.5 63.5 M
407.621 61.379 L
405.5 60.5 L
403.379 61.379 L
402.5 63.5 L
403.379 65.621 L
405.5 66.5 L
407.621 65.621 L
cp
S
GR
GS
[1 0 0 1 423.5 78.5] CT
/Helvetica 14 F
GS
[1 0 0 1 0 0] CT
0 3.5 moveto 
1 -1 scale
(NV-Filter) t 
GR
GR
GS
0 1 0 RC
[8 3 2 3] 0 setdash
2 LJ
1.1 LW
N
390.5 78.5 M
420.5 78.5 L
S
GR
GS
0 1 0 RC
1 LJ
1.1 LW
N
402 78.5 M
409 78.5 L
S
GR
GS
0 1 0 RC
1 LJ
1.1 LW
N
405.5 82 M
405.5 75 L
S
GR
GS
0.149 GC
10.0 ML
0.5 LW
N
384.5 87.5 M
384.5 40.5 L
496 40.5 L
496 87.5 L
cp
S
GR
GS
1 GC
N
73 365.5 M
507 365.5 L
507 230.5 L
73 230.5 L
cp
f
GR
GS
0.873 GC
1 LJ
0.5 LW
N
73 365.5 M
73 230.5 L
S
GR
GS
0.873 GC
1 LJ
0.5 LW
N
159.8 365.5 M
159.8 230.5 L
S
GR
GS
0.873 GC
1 LJ
0.5 LW
N
246.6 365.5 M
246.6 230.5 L
S
GR
GS
0.873 GC
1 LJ
0.5 LW
N
333.4 365.5 M
333.4 230.5 L
S
GR
GS
0.873 GC
1 LJ
0.5 LW
N
420.2 365.5 M
420.2 230.5 L
S
GR
GS
0.873 GC
1 LJ
0.5 LW
N
507 365.5 M
507 230.5 L
S
GR
GS
0.775 GC
[1 3] 0 setdash
2 LJ
0.5 LW
N
507 349.307 M
73 349.307 L
S
GR
GS
0.775 GC
[1 3] 0 setdash
2 LJ
0.5 LW
N
507 335.498 M
73 335.498 L
S
GR
GS
0.775 GC
[1 3] 0 setdash
2 LJ
0.5 LW
N
507 323.823 M
73 323.823 L
S
GR
GS
0.775 GC
[1 3] 0 setdash
2 LJ
0.5 LW
N
507 304.788 M
73 304.788 L
S
GR
GS
0.775 GC
[1 3] 0 setdash
2 LJ
0.5 LW
N
507 296.808 M
73 296.808 L
S
GR
GS
0.775 GC
[1 3] 0 setdash
2 LJ
0.5 LW
N
507 289.589 M
73 289.589 L
S
GR
GS
0.775 GC
[1 3] 0 setdash
2 LJ
0.5 LW
N
507 276.937 M
73 276.937 L
S
GR
GS
0.775 GC
[1 3] 0 setdash
2 LJ
0.5 LW
N
507 271.324 M
73 271.324 L
S
GR
GS
0.775 GC
[1 3] 0 setdash
2 LJ
0.5 LW
N
507 266.098 M
73 266.098 L
S
GR
GS
0.775 GC
[1 3] 0 setdash
2 LJ
0.5 LW
N
507 256.618 M
73 256.618 L
S
GR
GS
0.775 GC
[1 3] 0 setdash
2 LJ
0.5 LW
N
507 252.289 M
73 252.289 L
S
GR
GS
0.775 GC
[1 3] 0 setdash
2 LJ
0.5 LW
N
507 248.194 M
73 248.194 L
S
GR
GS
0.775 GC
[1 3] 0 setdash
2 LJ
0.5 LW
N
507 240.614 M
73 240.614 L
S
GR
GS
0.775 GC
[1 3] 0 setdash
2 LJ
0.5 LW
N
507 237.09 M
73 237.09 L
S
GR
GS
0.775 GC
[1 3] 0 setdash
2 LJ
0.5 LW
N
507 233.723 M
73 233.723 L
S
GR
GS
0.873 GC
1 LJ
0.5 LW
N
507 313.709 M
73 313.709 L
S
GR
GS
0.873 GC
1 LJ
0.5 LW
N
507 282.999 M
73 282.999 L
S
GR
GS
0.873 GC
1 LJ
0.5 LW
N
507 261.21 M
73 261.21 L
S
GR
GS
0.873 GC
1 LJ
0.5 LW
N
507 244.309 M
73 244.309 L
S
GR
GS
0.873 GC
1 LJ
0.5 LW
N
507 230.5 M
73 230.5 L
S
GR
GS
0.149 GC
2 setlinecap
1 LJ
0.5 LW
N
73 365.5 M
507 365.5 L
S
GR
GS
0.149 GC
2 setlinecap
1 LJ
0.5 LW
N
73 230.5 M
507 230.5 L
S
GR
GS
0.149 GC
2 setlinecap
1 LJ
0.5 LW
N
73 365.5 M
73 361.16 L
S
GR
GS
0.149 GC
2 setlinecap
1 LJ
0.5 LW
N
159.8 365.5 M
159.8 361.16 L
S
GR
GS
0.149 GC
2 setlinecap
1 LJ
0.5 LW
N
246.6 365.5 M
246.6 361.16 L
S
GR
GS
0.149 GC
2 setlinecap
1 LJ
0.5 LW
N
333.4 365.5 M
333.4 361.16 L
S
GR
GS
0.149 GC
2 setlinecap
1 LJ
0.5 LW
N
420.2 365.5 M
420.2 361.16 L
S
GR
GS
0.149 GC
2 setlinecap
1 LJ
0.5 LW
N
507 365.5 M
507 361.16 L
S
GR
GS
0.149 GC
2 setlinecap
1 LJ
0.5 LW
N
73 230.5 M
73 234.84 L
S
GR
GS
0.149 GC
2 setlinecap
1 LJ
0.5 LW
N
159.8 230.5 M
159.8 234.84 L
S
GR
GS
0.149 GC
2 setlinecap
1 LJ
0.5 LW
N
246.6 230.5 M
246.6 234.84 L
S
GR
GS
0.149 GC
2 setlinecap
1 LJ
0.5 LW
N
333.4 230.5 M
333.4 234.84 L
S
GR
GS
0.149 GC
2 setlinecap
1 LJ
0.5 LW
N
420.2 230.5 M
420.2 234.84 L
S
GR
GS
0.149 GC
2 setlinecap
1 LJ
0.5 LW
N
507 230.5 M
507 234.84 L
S
GR
GS
[1 0 0 1 73 370.5] CT
0.149 GC
/Helvetica 15 F
GS
[1 0 0 1 0 0] CT
-4.5 12 moveto 
1 -1 scale
(0) t 
GR
GR
GS
[1 0 0 1 159.8 370.5] CT
0.149 GC
/Helvetica 15 F
GS
[1 0 0 1 0 0] CT
-4.5 12 moveto 
1 -1 scale
(5) t 
GR
GR
GS
[1 0 0 1 246.60001 370.5] CT
0.149 GC
/Helvetica 15 F
GS
[1 0 0 1 0 0] CT
-8.5 12 moveto 
1 -1 scale
(10) t 
GR
GR
GS
[1 0 0 1 333.40002 370.5] CT
0.149 GC
/Helvetica 15 F
GS
[1 0 0 1 0 0] CT
-8.5 12 moveto 
1 -1 scale
(15) t 
GR
GR
GS
[1 0 0 1 420.20001 370.5] CT
0.149 GC
/Helvetica 15 F
GS
[1 0 0 1 0 0] CT
-8.5 12 moveto 
1 -1 scale
(20) t 
GR
GR
GS
[1 0 0 1 507 370.5] CT
0.149 GC
/Helvetica 15 F
GS
[1 0 0 1 0 0] CT
-8.5 12 moveto 
1 -1 scale
(25) t 
GR
GR
GS
[1 0 0 1 290.00021 387] CT
0.149 GC
/Helvetica 17 F
GS
[1 0 0 1 0 0] CT
-4.5 14 moveto 
1 -1 scale
(x) t 
GR
GR
GS
0.149 GC
2 setlinecap
1 LJ
0.5 LW
N
73 365.5 M
73 230.5 L
S
GR
GS
0.149 GC
2 setlinecap
1 LJ
0.5 LW
N
507 365.5 M
507 230.5 L
S
GR
GS
0.149 GC
2 setlinecap
1 LJ
0.5 LW
N
73 313.709 M
77.34 313.709 L
S
GR
GS
0.149 GC
2 setlinecap
1 LJ
0.5 LW
N
73 282.999 M
77.34 282.999 L
S
GR
GS
0.149 GC
2 setlinecap
1 LJ
0.5 LW
N
73 261.21 M
77.34 261.21 L
S
GR
GS
0.149 GC
2 setlinecap
1 LJ
0.5 LW
N
73 244.309 M
77.34 244.309 L
S
GR
GS
0.149 GC
2 setlinecap
1 LJ
0.5 LW
N
73 230.5 M
77.34 230.5 L
S
GR
GS
0.149 GC
2 setlinecap
1 LJ
0.5 LW
N
507 313.709 M
502.66 313.709 L
S
GR
GS
0.149 GC
2 setlinecap
1 LJ
0.5 LW
N
507 282.999 M
502.66 282.999 L
S
GR
GS
0.149 GC
2 setlinecap
1 LJ
0.5 LW
N
507 261.21 M
502.66 261.21 L
S
GR
GS
0.149 GC
2 setlinecap
1 LJ
0.5 LW
N
507 244.309 M
502.66 244.309 L
S
GR
GS
0.149 GC
2 setlinecap
1 LJ
0.5 LW
N
507 230.5 M
502.66 230.5 L
S
GR
GS
0.149 GC
2 setlinecap
1 LJ
0.5 LW
N
73 349.307 M
75.17 349.307 L
S
GR
GS
0.149 GC
2 setlinecap
1 LJ
0.5 LW
N
73 335.498 M
75.17 335.498 L
S
GR
GS
0.149 GC
2 setlinecap
1 LJ
0.5 LW
N
73 323.823 M
75.17 323.823 L
S
GR
GS
0.149 GC
2 setlinecap
1 LJ
0.5 LW
N
73 304.788 M
75.17 304.788 L
S
GR
GS
0.149 GC
2 setlinecap
1 LJ
0.5 LW
N
73 296.808 M
75.17 296.808 L
S
GR
GS
0.149 GC
2 setlinecap
1 LJ
0.5 LW
N
73 289.589 M
75.17 289.589 L
S
GR
GS
0.149 GC
2 setlinecap
1 LJ
0.5 LW
N
73 276.937 M
75.17 276.937 L
S
GR
GS
0.149 GC
2 setlinecap
1 LJ
0.5 LW
N
73 271.324 M
75.17 271.324 L
S
GR
GS
0.149 GC
2 setlinecap
1 LJ
0.5 LW
N
73 266.098 M
75.17 266.098 L
S
GR
GS
0.149 GC
2 setlinecap
1 LJ
0.5 LW
N
73 256.618 M
75.17 256.618 L
S
GR
GS
0.149 GC
2 setlinecap
1 LJ
0.5 LW
N
73 252.289 M
75.17 252.289 L
S
GR
GS
0.149 GC
2 setlinecap
1 LJ
0.5 LW
N
73 248.194 M
75.17 248.194 L
S
GR
GS
0.149 GC
2 setlinecap
1 LJ
0.5 LW
N
73 240.614 M
75.17 240.614 L
S
GR
GS
0.149 GC
2 setlinecap
1 LJ
0.5 LW
N
73 237.09 M
75.17 237.09 L
S
GR
GS
0.149 GC
2 setlinecap
1 LJ
0.5 LW
N
73 233.723 M
75.17 233.723 L
S
GR
GS
0.149 GC
2 setlinecap
1 LJ
0.5 LW
N
507 349.307 M
504.83 349.307 L
S
GR
GS
0.149 GC
2 setlinecap
1 LJ
0.5 LW
N
507 335.498 M
504.83 335.498 L
S
GR
GS
0.149 GC
2 setlinecap
1 LJ
0.5 LW
N
507 323.823 M
504.83 323.823 L
S
GR
GS
0.149 GC
2 setlinecap
1 LJ
0.5 LW
N
507 304.788 M
504.83 304.788 L
S
GR
GS
0.149 GC
2 setlinecap
1 LJ
0.5 LW
N
507 296.808 M
504.83 296.808 L
S
GR
GS
0.149 GC
2 setlinecap
1 LJ
0.5 LW
N
507 289.589 M
504.83 289.589 L
S
GR
GS
0.149 GC
2 setlinecap
1 LJ
0.5 LW
N
507 276.937 M
504.83 276.937 L
S
GR
GS
0.149 GC
2 setlinecap
1 LJ
0.5 LW
N
507 271.324 M
504.83 271.324 L
S
GR
GS
0.149 GC
2 setlinecap
1 LJ
0.5 LW
N
507 266.098 M
504.83 266.098 L
S
GR
GS
0.149 GC
2 setlinecap
1 LJ
0.5 LW
N
507 256.618 M
504.83 256.618 L
S
GR
GS
0.149 GC
2 setlinecap
1 LJ
0.5 LW
N
507 252.289 M
504.83 252.289 L
S
GR
GS
0.149 GC
2 setlinecap
1 LJ
0.5 LW
N
507 248.194 M
504.83 248.194 L
S
GR
GS
0.149 GC
2 setlinecap
1 LJ
0.5 LW
N
507 240.614 M
504.83 240.614 L
S
GR
GS
0.149 GC
2 setlinecap
1 LJ
0.5 LW
N
507 237.09 M
504.83 237.09 L
S
GR
GS
0.149 GC
2 setlinecap
1 LJ
0.5 LW
N
507 233.723 M
504.83 233.723 L
S
GR
GS
[1 0 0 1 68 313.70923] CT
0.149 GC
/Helvetica 15 F
GS
[1 0 0 1 0 0] CT
-21 4 moveto 
1 -1 scale
(0.2) t 
GR
GR
GS
[1 0 0 1 68 282.99918] CT
0.149 GC
/Helvetica 15 F
GS
[1 0 0 1 0 0] CT
-21 4 moveto 
1 -1 scale
(0.3) t 
GR
GR
GS
[1 0 0 1 68 261.21005] CT
0.149 GC
/Helvetica 15 F
GS
[1 0 0 1 0 0] CT
-21 4 moveto 
1 -1 scale
(0.4) t 
GR
GR
GS
[1 0 0 1 68 244.3091] CT
0.149 GC
/Helvetica 15 F
GS
[1 0 0 1 0 0] CT
-21 4 moveto 
1 -1 scale
(0.5) t 
GR
GR
GS
[1 0 0 1 68 230.5] CT
0.149 GC
/Helvetica 15 F
GS
[1 0 0 1 0 0] CT
-21 4 moveto 
1 -1 scale
(0.6) t 
GR
GR
GS
[0 -1 1 0 44 297.99994] CT
0.149 GC
/Helvetica 17 F
GS
[1 0 0 1 0 0] CT
-25 -4 moveto 
1 -1 scale
(NMSE) t 
GR
GR
GS
0 0 1 RC
1 LJ
1.1 LW
N
90.36 291.646 M
107.72 331.465 L
125.08 344.806 L
142.44 353.444 L
159.8 357.52 L
177.16 360.996 L
194.52 363.874 L
211.88 364.928 L
229.24 365.317 L
246.6 365.301 L
263.96 365.374 L
281.32 365.392 L
298.68 365.4 L
316.04 365.402 L
333.4 365.405 L
350.76 365.406 L
368.12 365.41 L
385.48 365.411 L
402.84 365.411 L
420.2 365.412 L
437.56 365.411 L
454.92 365.411 L
472.28 365.41 L
489.64 365.411 L
507 365.41 L
S
GR
GS
0 0 1 RC
1 LJ
1.1 LW
N
87 291.5 M
94 291.5 L
S
GR
GS
0 0 1 RC
1 LJ
1.1 LW
N
90.5 295 M
90.5 288 L
S
GR
GS
0 0 1 RC
1 LJ
1.1 LW
N
88 294 M
93 289 L
S
GR
GS
0 0 1 RC
1 LJ
1.1 LW
N
88 289 M
93 294 L
S
GR
GS
0 0 1 RC
1 LJ
1.1 LW
N
104 331.5 M
111 331.5 L
S
GR
GS
0 0 1 RC
1 LJ
1.1 LW
N
107.5 335 M
107.5 328 L
S
GR
GS
0 0 1 RC
1 LJ
1.1 LW
N
105 334 M
110 329 L
S
GR
GS
0 0 1 RC
1 LJ
1.1 LW
N
105 329 M
110 334 L
S
GR
GS
0 0 1 RC
1 LJ
1.1 LW
N
122 344.5 M
129 344.5 L
S
GR
GS
0 0 1 RC
1 LJ
1.1 LW
N
125.5 348 M
125.5 341 L
S
GR
GS
0 0 1 RC
1 LJ
1.1 LW
N
123 347 M
128 342 L
S
GR
GS
0 0 1 RC
1 LJ
1.1 LW
N
123 342 M
128 347 L
S
GR
GS
0 0 1 RC
1 LJ
1.1 LW
N
139 353.5 M
146 353.5 L
S
GR
GS
0 0 1 RC
1 LJ
1.1 LW
N
142.5 357 M
142.5 350 L
S
GR
GS
0 0 1 RC
1 LJ
1.1 LW
N
140 356 M
145 351 L
S
GR
GS
0 0 1 RC
1 LJ
1.1 LW
N
140 351 M
145 356 L
S
GR
GS
0 0 1 RC
1 LJ
1.1 LW
N
156 357.5 M
163 357.5 L
S
GR
GS
0 0 1 RC
1 LJ
1.1 LW
N
159.5 361 M
159.5 354 L
S
GR
GS
0 0 1 RC
1 LJ
1.1 LW
N
157 360 M
162 355 L
S
GR
GS
0 0 1 RC
1 LJ
1.1 LW
N
157 355 M
162 360 L
S
GR
GS
0 0 1 RC
1 LJ
1.1 LW
N
174 360.5 M
181 360.5 L
S
GR
GS
0 0 1 RC
1 LJ
1.1 LW
N
177.5 364 M
177.5 357 L
S
GR
GS
0 0 1 RC
1 LJ
1.1 LW
N
175 363 M
180 358 L
S
GR
GS
0 0 1 RC
1 LJ
1.1 LW
N
175 358 M
180 363 L
S
GR
GS
0 0 1 RC
1 LJ
1.1 LW
N
191 363.5 M
198 363.5 L
S
GR
GS
0 0 1 RC
1 LJ
1.1 LW
N
194.5 367 M
194.5 360 L
S
GR
GS
0 0 1 RC
1 LJ
1.1 LW
N
192 366 M
197 361 L
S
GR
GS
0 0 1 RC
1 LJ
1.1 LW
N
192 361 M
197 366 L
S
GR
GS
0 0 1 RC
1 LJ
1.1 LW
N
208 364.5 M
215 364.5 L
S
GR
GS
0 0 1 RC
1 LJ
1.1 LW
N
211.5 368 M
211.5 361 L
S
GR
GS
0 0 1 RC
1 LJ
1.1 LW
N
209 367 M
214 362 L
S
GR
GS
0 0 1 RC
1 LJ
1.1 LW
N
209 362 M
214 367 L
S
GR
GS
0 0 1 RC
1 LJ
1.1 LW
N
226 365.5 M
233 365.5 L
S
GR
GS
0 0 1 RC
1 LJ
1.1 LW
N
229.5 369 M
229.5 362 L
S
GR
GS
0 0 1 RC
1 LJ
1.1 LW
N
227 368 M
232 363 L
S
GR
GS
0 0 1 RC
1 LJ
1.1 LW
N
227 363 M
232 368 L
S
GR
GS
0 0 1 RC
1 LJ
1.1 LW
N
243 365.5 M
250 365.5 L
S
GR
GS
0 0 1 RC
1 LJ
1.1 LW
N
246.5 369 M
246.5 362 L
S
GR
GS
0 0 1 RC
1 LJ
1.1 LW
N
244 368 M
249 363 L
S
GR
GS
0 0 1 RC
1 LJ
1.1 LW
N
244 363 M
249 368 L
S
GR
GS
0 0 1 RC
1 LJ
1.1 LW
N
260 365.5 M
267 365.5 L
S
GR
GS
0 0 1 RC
1 LJ
1.1 LW
N
263.5 369 M
263.5 362 L
S
GR
GS
0 0 1 RC
1 LJ
1.1 LW
N
261 368 M
266 363 L
S
GR
GS
0 0 1 RC
1 LJ
1.1 LW
N
261 363 M
266 368 L
S
GR
GS
0 0 1 RC
1 LJ
1.1 LW
N
278 365.5 M
285 365.5 L
S
GR
GS
0 0 1 RC
1 LJ
1.1 LW
N
281.5 369 M
281.5 362 L
S
GR
GS
0 0 1 RC
1 LJ
1.1 LW
N
279 368 M
284 363 L
S
GR
GS
0 0 1 RC
1 LJ
1.1 LW
N
279 363 M
284 368 L
S
GR
GS
0 0 1 RC
1 LJ
1.1 LW
N
295 365.5 M
302 365.5 L
S
GR
GS
0 0 1 RC
1 LJ
1.1 LW
N
298.5 369 M
298.5 362 L
S
GR
GS
0 0 1 RC
1 LJ
1.1 LW
N
296 368 M
301 363 L
S
GR
GS
0 0 1 RC
1 LJ
1.1 LW
N
296 363 M
301 368 L
S
GR
GS
0 0 1 RC
1 LJ
1.1 LW
N
313 365.5 M
320 365.5 L
S
GR
GS
0 0 1 RC
1 LJ
1.1 LW
N
316.5 369 M
316.5 362 L
S
GR
GS
0 0 1 RC
1 LJ
1.1 LW
N
314 368 M
319 363 L
S
GR
GS
0 0 1 RC
1 LJ
1.1 LW
N
314 363 M
319 368 L
S
GR
GS
0 0 1 RC
1 LJ
1.1 LW
N
330 365.5 M
337 365.5 L
S
GR
GS
0 0 1 RC
1 LJ
1.1 LW
N
333.5 369 M
333.5 362 L
S
GR
GS
0 0 1 RC
1 LJ
1.1 LW
N
331 368 M
336 363 L
S
GR
GS
0 0 1 RC
1 LJ
1.1 LW
N
331 363 M
336 368 L
S
GR
GS
0 0 1 RC
1 LJ
1.1 LW
N
347 365.5 M
354 365.5 L
S
GR
GS
0 0 1 RC
1 LJ
1.1 LW
N
350.5 369 M
350.5 362 L
S
GR
GS
0 0 1 RC
1 LJ
1.1 LW
N
348 368 M
353 363 L
S
GR
GS
0 0 1 RC
1 LJ
1.1 LW
N
348 363 M
353 368 L
S
GR
GS
0 0 1 RC
1 LJ
1.1 LW
N
365 365.5 M
372 365.5 L
S
GR
GS
0 0 1 RC
1 LJ
1.1 LW
N
368.5 369 M
368.5 362 L
S
GR
GS
0 0 1 RC
1 LJ
1.1 LW
N
366 368 M
371 363 L
S
GR
GS
0 0 1 RC
1 LJ
1.1 LW
N
366 363 M
371 368 L
S
GR
GS
0 0 1 RC
1 LJ
1.1 LW
N
382 365.5 M
389 365.5 L
S
GR
GS
0 0 1 RC
1 LJ
1.1 LW
N
385.5 369 M
385.5 362 L
S
GR
GS
0 0 1 RC
1 LJ
1.1 LW
N
383 368 M
388 363 L
S
GR
GS
0 0 1 RC
1 LJ
1.1 LW
N
383 363 M
388 368 L
S
GR
GS
0 0 1 RC
1 LJ
1.1 LW
N
399 365.5 M
406 365.5 L
S
GR
GS
0 0 1 RC
1 LJ
1.1 LW
N
402.5 369 M
402.5 362 L
S
GR
GS
0 0 1 RC
1 LJ
1.1 LW
N
400 368 M
405 363 L
S
GR
GS
0 0 1 RC
1 LJ
1.1 LW
N
400 363 M
405 368 L
S
GR
GS
0 0 1 RC
1 LJ
1.1 LW
N
417 365.5 M
424 365.5 L
S
GR
GS
0 0 1 RC
1 LJ
1.1 LW
N
420.5 369 M
420.5 362 L
S
GR
GS
0 0 1 RC
1 LJ
1.1 LW
N
418 368 M
423 363 L
S
GR
GS
0 0 1 RC
1 LJ
1.1 LW
N
418 363 M
423 368 L
S
GR
GS
0 0 1 RC
1 LJ
1.1 LW
N
434 365.5 M
441 365.5 L
S
GR
GS
0 0 1 RC
1 LJ
1.1 LW
N
437.5 369 M
437.5 362 L
S
GR
GS
0 0 1 RC
1 LJ
1.1 LW
N
435 368 M
440 363 L
S
GR
GS
0 0 1 RC
1 LJ
1.1 LW
N
435 363 M
440 368 L
S
GR
GS
0 0 1 RC
1 LJ
1.1 LW
N
451 365.5 M
458 365.5 L
S
GR
GS
0 0 1 RC
1 LJ
1.1 LW
N
454.5 369 M
454.5 362 L
S
GR
GS
0 0 1 RC
1 LJ
1.1 LW
N
452 368 M
457 363 L
S
GR
GS
0 0 1 RC
1 LJ
1.1 LW
N
452 363 M
457 368 L
S
GR
GS
0 0 1 RC
1 LJ
1.1 LW
N
469 365.5 M
476 365.5 L
S
GR
GS
0 0 1 RC
1 LJ
1.1 LW
N
472.5 369 M
472.5 362 L
S
GR
GS
0 0 1 RC
1 LJ
1.1 LW
N
470 368 M
475 363 L
S
GR
GS
0 0 1 RC
1 LJ
1.1 LW
N
470 363 M
475 368 L
S
GR
GS
0 0 1 RC
1 LJ
1.1 LW
N
486 365.5 M
493 365.5 L
S
GR
GS
0 0 1 RC
1 LJ
1.1 LW
N
489.5 369 M
489.5 362 L
S
GR
GS
0 0 1 RC
1 LJ
1.1 LW
N
487 368 M
492 363 L
S
GR
GS
0 0 1 RC
1 LJ
1.1 LW
N
487 363 M
492 368 L
S
GR
GS
0 0 1 RC
1 LJ
1.1 LW
N
504 365.5 M
511 365.5 L
S
GR
GS
0 0 1 RC
1 LJ
1.1 LW
N
507.5 369 M
507.5 362 L
S
GR
GS
0 0 1 RC
1 LJ
1.1 LW
N
505 368 M
510 363 L
S
GR
GS
0 0 1 RC
1 LJ
1.1 LW
N
505 363 M
510 368 L
S
GR
GS
1 0 0 RC
[10 6] 0 setdash
2 LJ
1.1 LW
N
90.36 238.86 M
107.72 238.86 L
125.08 259.42 L
142.44 259.42 L
159.8 277.17 L
177.16 277.17 L
194.52 292.223 L
211.88 292.223 L
229.24 305.038 L
246.6 305.038 L
263.96 316.199 L
281.32 316.199 L
298.68 326.3 L
316.04 326.3 L
333.4 335.571 L
350.76 335.571 L
368.12 344.047 L
385.48 344.048 L
402.84 351.782 L
420.2 351.776 L
437.56 358.769 L
454.92 358.818 L
472.28 364.302 L
489.64 364.217 L
507 365.413 L
S
GR
GS
1 0 0 RC
1 LJ
1.1 LW
N
93.5 238.5 M
92.621 236.379 L
90.5 235.5 L
88.379 236.379 L
87.5 238.5 L
88.379 240.621 L
90.5 241.5 L
92.621 240.621 L
cp
S
GR
GS
1 0 0 RC
1 LJ
1.1 LW
N
110.5 238.5 M
109.621 236.379 L
107.5 235.5 L
105.379 236.379 L
104.5 238.5 L
105.379 240.621 L
107.5 241.5 L
109.621 240.621 L
cp
S
GR
GS
1 0 0 RC
1 LJ
1.1 LW
N
128.5 259.5 M
127.621 257.379 L
125.5 256.5 L
123.379 257.379 L
122.5 259.5 L
123.379 261.621 L
125.5 262.5 L
127.621 261.621 L
cp
S
GR
GS
1 0 0 RC
1 LJ
1.1 LW
N
145.5 259.5 M
144.621 257.379 L
142.5 256.5 L
140.379 257.379 L
139.5 259.5 L
140.379 261.621 L
142.5 262.5 L
144.621 261.621 L
cp
S
GR
GS
1 0 0 RC
1 LJ
1.1 LW
N
162.5 277.5 M
161.621 275.379 L
159.5 274.5 L
157.379 275.379 L
156.5 277.5 L
157.379 279.621 L
159.5 280.5 L
161.621 279.621 L
cp
S
GR
GS
1 0 0 RC
1 LJ
1.1 LW
N
180.5 277.5 M
179.621 275.379 L
177.5 274.5 L
175.379 275.379 L
174.5 277.5 L
175.379 279.621 L
177.5 280.5 L
179.621 279.621 L
cp
S
GR
GS
1 0 0 RC
1 LJ
1.1 LW
N
197.5 292.5 M
196.621 290.379 L
194.5 289.5 L
192.379 290.379 L
191.5 292.5 L
192.379 294.621 L
194.5 295.5 L
196.621 294.621 L
cp
S
GR
GS
1 0 0 RC
1 LJ
1.1 LW
N
214.5 292.5 M
213.621 290.379 L
211.5 289.5 L
209.379 290.379 L
208.5 292.5 L
209.379 294.621 L
211.5 295.5 L
213.621 294.621 L
cp
S
GR
GS
1 0 0 RC
1 LJ
1.1 LW
N
232.5 305.5 M
231.621 303.379 L
229.5 302.5 L
227.379 303.379 L
226.5 305.5 L
227.379 307.621 L
229.5 308.5 L
231.621 307.621 L
cp
S
GR
GS
1 0 0 RC
1 LJ
1.1 LW
N
249.5 305.5 M
248.621 303.379 L
246.5 302.5 L
244.379 303.379 L
243.5 305.5 L
244.379 307.621 L
246.5 308.5 L
248.621 307.621 L
cp
S
GR
GS
1 0 0 RC
1 LJ
1.1 LW
N
266.5 316.5 M
265.621 314.379 L
263.5 313.5 L
261.379 314.379 L
260.5 316.5 L
261.379 318.621 L
263.5 319.5 L
265.621 318.621 L
cp
S
GR
GS
1 0 0 RC
1 LJ
1.1 LW
N
284.5 316.5 M
283.621 314.379 L
281.5 313.5 L
279.379 314.379 L
278.5 316.5 L
279.379 318.621 L
281.5 319.5 L
283.621 318.621 L
cp
S
GR
GS
1 0 0 RC
1 LJ
1.1 LW
N
301.5 326.5 M
300.621 324.379 L
298.5 323.5 L
296.379 324.379 L
295.5 326.5 L
296.379 328.621 L
298.5 329.5 L
300.621 328.621 L
cp
S
GR
GS
1 0 0 RC
1 LJ
1.1 LW
N
319.5 326.5 M
318.621 324.379 L
316.5 323.5 L
314.379 324.379 L
313.5 326.5 L
314.379 328.621 L
316.5 329.5 L
318.621 328.621 L
cp
S
GR
GS
1 0 0 RC
1 LJ
1.1 LW
N
336.5 335.5 M
335.621 333.379 L
333.5 332.5 L
331.379 333.379 L
330.5 335.5 L
331.379 337.621 L
333.5 338.5 L
335.621 337.621 L
cp
S
GR
GS
1 0 0 RC
1 LJ
1.1 LW
N
353.5 335.5 M
352.621 333.379 L
350.5 332.5 L
348.379 333.379 L
347.5 335.5 L
348.379 337.621 L
350.5 338.5 L
352.621 337.621 L
cp
S
GR
GS
1 0 0 RC
1 LJ
1.1 LW
N
371.5 344.5 M
370.621 342.379 L
368.5 341.5 L
366.379 342.379 L
365.5 344.5 L
366.379 346.621 L
368.5 347.5 L
370.621 346.621 L
cp
S
GR
GS
1 0 0 RC
1 LJ
1.1 LW
N
388.5 344.5 M
387.621 342.379 L
385.5 341.5 L
383.379 342.379 L
382.5 344.5 L
383.379 346.621 L
385.5 347.5 L
387.621 346.621 L
cp
S
GR
GS
1 0 0 RC
1 LJ
1.1 LW
N
405.5 351.5 M
404.621 349.379 L
402.5 348.5 L
400.379 349.379 L
399.5 351.5 L
400.379 353.621 L
402.5 354.5 L
404.621 353.621 L
cp
S
GR
GS
1 0 0 RC
1 LJ
1.1 LW
N
423.5 351.5 M
422.621 349.379 L
420.5 348.5 L
418.379 349.379 L
417.5 351.5 L
418.379 353.621 L
420.5 354.5 L
422.621 353.621 L
cp
S
GR
GS
1 0 0 RC
1 LJ
1.1 LW
N
440.5 358.5 M
439.621 356.379 L
437.5 355.5 L
435.379 356.379 L
434.5 358.5 L
435.379 360.621 L
437.5 361.5 L
439.621 360.621 L
cp
S
GR
GS
1 0 0 RC
1 LJ
1.1 LW
N
457.5 358.5 M
456.621 356.379 L
454.5 355.5 L
452.379 356.379 L
451.5 358.5 L
452.379 360.621 L
454.5 361.5 L
456.621 360.621 L
cp
S
GR
GS
1 0 0 RC
1 LJ
1.1 LW
N
475.5 364.5 M
474.621 362.379 L
472.5 361.5 L
470.379 362.379 L
469.5 364.5 L
470.379 366.621 L
472.5 367.5 L
474.621 366.621 L
cp
S
GR
GS
1 0 0 RC
1 LJ
1.1 LW
N
492.5 364.5 M
491.621 362.379 L
489.5 361.5 L
487.379 362.379 L
486.5 364.5 L
487.379 366.621 L
489.5 367.5 L
491.621 366.621 L
cp
S
GR
GS
1 0 0 RC
1 LJ
1.1 LW
N
510.5 365.5 M
509.621 363.379 L
507.5 362.5 L
505.379 363.379 L
504.5 365.5 L
505.379 367.621 L
507.5 368.5 L
509.621 367.621 L
cp
S
GR
GS
0 1 0 RC
[8 3 2 3] 0 setdash
2 LJ
1.1 LW
N
90.36 267.254 M
107.72 291.301 L
125.08 296.14 L
142.44 319.492 L
159.8 328.082 L
177.16 333.14 L
194.52 346.962 L
211.88 350.987 L
229.24 355.034 L
246.6 359.653 L
263.96 360.455 L
281.32 362.343 L
298.68 364.329 L
316.04 364.413 L
333.4 365.296 L
350.76 365.402 L
368.12 365.444 L
385.48 365.436 L
402.84 365.433 L
420.2 365.498 L
437.56 365.491 L
454.92 365.5 L
472.28 365.469 L
489.64 365.47 L
507 365.464 L
S
GR
GS
0 1 0 RC
1 LJ
1.1 LW
N
87 267.5 M
94 267.5 L
S
GR
GS
0 1 0 RC
1 LJ
1.1 LW
N
90.5 271 M
90.5 264 L
S
GR
GS
0 1 0 RC
1 LJ
1.1 LW
N
104 291.5 M
111 291.5 L
S
GR
GS
0 1 0 RC
1 LJ
1.1 LW
N
107.5 295 M
107.5 288 L
S
GR
GS
0 1 0 RC
1 LJ
1.1 LW
N
122 296.5 M
129 296.5 L
S
GR
GS
0 1 0 RC
1 LJ
1.1 LW
N
125.5 300 M
125.5 293 L
S
GR
GS
0 1 0 RC
1 LJ
1.1 LW
N
139 319.5 M
146 319.5 L
S
GR
GS
0 1 0 RC
1 LJ
1.1 LW
N
142.5 323 M
142.5 316 L
S
GR
GS
0 1 0 RC
1 LJ
1.1 LW
N
156 328.5 M
163 328.5 L
S
GR
GS
0 1 0 RC
1 LJ
1.1 LW
N
159.5 332 M
159.5 325 L
S
GR
GS
0 1 0 RC
1 LJ
1.1 LW
N
174 333.5 M
181 333.5 L
S
GR
GS
0 1 0 RC
1 LJ
1.1 LW
N
177.5 337 M
177.5 330 L
S
GR
GS
0 1 0 RC
1 LJ
1.1 LW
N
191 346.5 M
198 346.5 L
S
GR
GS
0 1 0 RC
1 LJ
1.1 LW
N
194.5 350 M
194.5 343 L
S
GR
GS
0 1 0 RC
1 LJ
1.1 LW
N
208 350.5 M
215 350.5 L
S
GR
GS
0 1 0 RC
1 LJ
1.1 LW
N
211.5 354 M
211.5 347 L
S
GR
GS
0 1 0 RC
1 LJ
1.1 LW
N
226 355.5 M
233 355.5 L
S
GR
GS
0 1 0 RC
1 LJ
1.1 LW
N
229.5 359 M
229.5 352 L
S
GR
GS
0 1 0 RC
1 LJ
1.1 LW
N
243 359.5 M
250 359.5 L
S
GR
GS
0 1 0 RC
1 LJ
1.1 LW
N
246.5 363 M
246.5 356 L
S
GR
GS
0 1 0 RC
1 LJ
1.1 LW
N
260 360.5 M
267 360.5 L
S
GR
GS
0 1 0 RC
1 LJ
1.1 LW
N
263.5 364 M
263.5 357 L
S
GR
GS
0 1 0 RC
1 LJ
1.1 LW
N
278 362.5 M
285 362.5 L
S
GR
GS
0 1 0 RC
1 LJ
1.1 LW
N
281.5 366 M
281.5 359 L
S
GR
GS
0 1 0 RC
1 LJ
1.1 LW
N
295 364.5 M
302 364.5 L
S
GR
GS
0 1 0 RC
1 LJ
1.1 LW
N
298.5 368 M
298.5 361 L
S
GR
GS
0 1 0 RC
1 LJ
1.1 LW
N
313 364.5 M
320 364.5 L
S
GR
GS
0 1 0 RC
1 LJ
1.1 LW
N
316.5 368 M
316.5 361 L
S
GR
GS
0 1 0 RC
1 LJ
1.1 LW
N
330 365.5 M
337 365.5 L
S
GR
GS
0 1 0 RC
1 LJ
1.1 LW
N
333.5 369 M
333.5 362 L
S
GR
GS
0 1 0 RC
1 LJ
1.1 LW
N
347 365.5 M
354 365.5 L
S
GR
GS
0 1 0 RC
1 LJ
1.1 LW
N
350.5 369 M
350.5 362 L
S
GR
GS
0 1 0 RC
1 LJ
1.1 LW
N
365 365.5 M
372 365.5 L
S
GR
GS
0 1 0 RC
1 LJ
1.1 LW
N
368.5 369 M
368.5 362 L
S
GR
GS
0 1 0 RC
1 LJ
1.1 LW
N
382 365.5 M
389 365.5 L
S
GR
GS
0 1 0 RC
1 LJ
1.1 LW
N
385.5 369 M
385.5 362 L
S
GR
GS
0 1 0 RC
1 LJ
1.1 LW
N
399 365.5 M
406 365.5 L
S
GR
GS
0 1 0 RC
1 LJ
1.1 LW
N
402.5 369 M
402.5 362 L
S
GR
GS
0 1 0 RC
1 LJ
1.1 LW
N
417 365.5 M
424 365.5 L
S
GR
GS
0 1 0 RC
1 LJ
1.1 LW
N
420.5 369 M
420.5 362 L
S
GR
GS
0 1 0 RC
1 LJ
1.1 LW
N
434 365.5 M
441 365.5 L
S
GR
GS
0 1 0 RC
1 LJ
1.1 LW
N
437.5 369 M
437.5 362 L
S
GR
GS
0 1 0 RC
1 LJ
1.1 LW
N
451 365.5 M
458 365.5 L
S
GR
GS
0 1 0 RC
1 LJ
1.1 LW
N
454.5 369 M
454.5 362 L
S
GR
GS
0 1 0 RC
1 LJ
1.1 LW
N
469 365.5 M
476 365.5 L
S
GR
GS
0 1 0 RC
1 LJ
1.1 LW
N
472.5 369 M
472.5 362 L
S
GR
GS
0 1 0 RC
1 LJ
1.1 LW
N
486 365.5 M
493 365.5 L
S
GR
GS
0 1 0 RC
1 LJ
1.1 LW
N
489.5 369 M
489.5 362 L
S
GR
GS
0 1 0 RC
1 LJ
1.1 LW
N
504 365.5 M
511 365.5 L
S
GR
GS
0 1 0 RC
1 LJ
1.1 LW
N
507.5 369 M
507.5 362 L
S
GR
%%Trailer
%%Pages: 1
%%EOF
